Protein ID	OrganismID	Tandem Repeats
L7RDZ1	1269028	ANK: 3
L7RCP2	1269028	ANK: 4
G5CRX8	1094892	ANK: 3
G5CS49	1094892	ANK: 11
E5ERA4	880160	KELCH: 5
Q8QKY0	654926	ANK: 7
A0A2U7UF78	2107707	ANK: 7
A0A2U7UFZ5	2107707	ANK: 7
A0A2U7UE86	2107708	ANK: 4
A0A2U7UC50	2107708	ANK: 6
A0A291ATU2	1349410	ANK: 6
A0A291ATD4	1349410	ANK: 2
S4VZM0	1349410	ANK: 7
A0A291ATJ2	1349410	ANK: 2
S4VXV1	1349410	ANK: 6
S4W1C4	1349410	ANK: 8
S4VYU8	1349409	ANK: 3
S4VY96	1349409	ANK: 5
A0A2U7U8W0	2107709	ANK: 8
A0A0B5J551	1605721	ANK: 7
A0A0B5JBR3	1605721	ANK: 2
Q6VZ25	44088	ANK: 10
A0A6N1NZP3	2126985	ANK: 6
A0A6N1NUB3	2126985	ANK: 3
A0A6N1P111	2126985	ANK: 6
A0A6N1P1P1	2126985	ANK: 1
A0A6N1NTK4	2126985	ANK: 5
A0A6N1NJW4	2126985	ANK: 5
A0A6N1NUX2	2126985	ANK: 7
A0A6N1NIB5	2126985	ANK: 3
A0A6N1NYY8	2126985	ANK: 4
A0A6N1P0T3	2126985	ANK: 5
A0A6N1NL35	2126985	ANK: 3
A0A6N1NK43	2126985	ANK: 3
A0A6N1NY07	2126985	ANK: 6
A0A6N1NY89	2126985	ANK: 2
A0A6N1NXY0	2126985	TPR: 5
A0A6N1NKF6	2126985	ANK: 4
A0A6N1NXI8	2126985	ANK: 1
A0A6N1NVW6	2126985	ANK: 5
A0A6N1NSM7	2126985	ANK: 4
A0A6N1NZ03	2126985	LRR: 8
A0A6N1NMS3	2126985	ANK: 3
A0A6N1NNB2	2126985	ANK: 2
A0A6N1NKN8	2126985	ANK: 2
A0A6N1NXW7	2126985	ANK: 3
A0A6N1NTM1	2126985	ANK: 12
A0A6N1NV97	2126985	ANK: 4
A0A6N1P0U2	2126985	ANK: 3
A0A6N1NUF2	2126985	ANK: 3
A0A6N1NJV7	2126985	ANK: 6
A0A6N1NSW5	2126985	ANK: 7
A0A6N1NQZ1	2126985	ANK: 6
A0A6N1NMS0	2126985	ANK: 9
A0A6N1NWX6	2126985	ANK: 17
A0A6N1P1K2	2126985	ANK: 21
A0A6N1NPD6	2126985	ANK: 7
Q5UPB4	212035	ANK: 7
Q5UPG6	212035	ANK: 7
Q5UPS2	212035	WD40: 5
Q5UPI9	212035	ANK: 5
Q5UQY4	212035	ANK: 3
Q5UQQ7	212035	TPR: 7
Q5UQQ5	212035	ANK: 4
Q5UQB0	212035	ANK: 4
Q5UP39	212035	ANK: 14
Q5UQB4	212035	ANK: 2
Q5UQZ5	212035	ANK: 10
Q5UQ12	212035	ANK: 3
Q5UQ04	212035	ANK: 7
Q5UNZ2	212035	WD40: 6
Q5UQ06	212035	ANK: 10
Q5UPQ9	212035	ANK: 3
Q5UPV1	212035	ANK: 9
Q5UPX1	212035	ANK: 8
Q5UPI6	212035	ANK: 11
Q5UPE2	212035	ANK: 14
Q5UPQ4	212035	ANK: 9
Q5UPG7	212035	ANK: 14
Q5UP49	212035	ANK: 4
Q5UR87	212035	ANK: 12
Q5UP66	212035	ANK: 4
Q5UQY9	212035	ANK: 5
Q5UPH4	212035	ANK: 7
Q5UP14	212035	ANK: 8
Q5UPA3	212035	ANK: 4
Q5UPH1	212035	ANK: 5
Q5UPV5	212035	ANK: 4
Q5UR56	212035	ANK: 6
Q5UPB9	212035	ANK: 9
Q5UQI7	212035	ANK: 4
Q5UPA0	212035	ANK: 10
Q5UP64	212035	ANK: 5
Q5UR04	212035	ANK: 14
Q5UQF0	212035	ANK: 5
Q5UPF1	212035	ANK: 7
Q5URB8	212035	ANK: 12
Q5UNT9	212035	ANK: 3
Q5UPF8	212035	ANK: 16
Q5UP97	212035	TPR: 4
Q5UQF2	212035	ANK: 4
Q5UQV3	212035	ANK: 9
Q5UP05	212035	ANK: 1
Q5UQX3	212035	LRR: 8
Q5UPQ6	212035	ANK: 5
Q5UQJ0	212035	ANK: 6
Q5UPU4	212035	ANK: 8
Q5UR94	212035	ANK: 4
Q5UP63	212035	ANK: 5
Q5UR93	212035	ANK: 8
Q5UQF1	212035	ANK: 11
Q5URA9	212035	ANK: 4
Q5UP19	212035	ANK: 7
Q5UQZ7	212035	ANK: 9
Q5UP11	212035	ANK: 7
Q5UQ08	212035	ANK: 10
Q5URB9	212035	ANK: 15
Q5UQY8	212035	ANK: 3
Q5UPE3	212035	ANK: 9
Q5UPS1	212035	ANK: 10
Q5UP15	212035	ANK: 4
Q5UPD3	212035	WD40: 6
Q5UPD5	212035	ANK: 9
Q5UQC4	212035	ANK: 6
Q5UP34	212035	ANK: 5
Q5UPG0	212035	ANK: 10
Q5UPD2	212035	ANK: 11
Q5UQI8	212035	ANK: 18
Q5UPG5	212035	ANK: 10
Q5UQJ2	212035	ANK: 15
Q5UP96	212035	ANK: 3
Q5UP65	212035	ANK: 7
Q5UNX2	212035	ANK: 2
Q5UPL6	212035	WD40: 3
Q5UPR3	212035	ANK: 9
Q5UQ58	212035	ANK: 3
Q5UPA2	212035	ANK: 5
Q5UPB2	212035	ANK: 1
Q5UP60	212035	ANK: 6
Q5UPK0	212035	ANK: 6
Q5UP62	212035	ANK: 4
Q5UPR6	212035	ANK: 3
Q5UQ36	212035	ANK: 4
Q5URA0	212035	ANK: 3
Q5UPJ9	212035	ANK: 12
Q5UP61	212035	ANK: 6
Q5UPB6	212035	ANK: 6
Q5UPP7	212035	ANK: 14
Q5UP12	212035	ANK: 4
Q5UPR0	212035	ANK: 5
Q5UNU1	212035	ANK: 8
Q5UPH0	212035	ANK: 11
Q5UPK1	212035	ANK: 4
Q5UQ38	212035	ANK: 4
Q5UP13	212035	ANK: 3
Q5UPU7	212035	WD40: 3
Q5UPD9	212035	ANK: 16
Q5UQX8	212035	ANK: 5
L7RCH0	1269028	ANK: 8
L7RGW9	1269028	ANK: 6
L7RD54	1269028	ANK: 8
L7RGK4	1269028	ANK: 3
L7RDJ0	1269028	ANK: 10
L7RGX3	1269028	ANK: 3
L7RBP7	1269028	ANK: 5
L7RC80	1269028	ANK: 5
L7RCA8	1269028	ANK: 7
L7RCF6	1269028	ANK: 6
L7RBU4	1269028	ANK: 3
L7RCL2	1269028	ANK: 12
L7RCR9	1269028	ANK: 4
L7RCH3	1269028	ANK: 3
L7RGI8	1269028	ANK: 4
L7RB64	1269028	ANK: 10
L7RBN5	1269028	ANK: 6
L7RCF9	1269028	ANK: 4
L7RB17	1269028	ANK: 10
L7RDK8	1269028	ANK: 5
L7RCI3	1269028	ANK: 7
L7RDB5	1269028	ANK: 12
L7RCC8	1269028	ANK: 4
L7RDD5	1269028	ANK: 1
L7RCQ1	1269028	ANK: 1
L7RGK7	1269028	ANK: 2
L7RFL0	1269028	ANK: 5
L7RGP0	1269028	ANK: 1
L7RCF1	1269028	ANK: 5
L7RC50	1269028	ANK: 4
L7RCP6	1269028	ANK: 9
L7RGJ8	1269028	ANK: 9
L7RE25	1269028	ANK: 4
L7RCN5	1269028	ANK: 11
L7RD06	1269028	ANK: 3
L7RB20	1269028	ANK: 7
L7RC19	1269028	ANK: 3
L7RAY1	1269028	ANK: 5
L7RBS4	1269028	ANK: 15
L7RC32	1269028	ANK: 3
L7RBS1	1269028	ANK: 5
L7RBL1	1269028	ANK: 13
L7RCB2	1269028	ANK: 4
L7RBW8	1269028	ANK: 6
L7RDM4	1269028	ANK: 10
L7RCU3	1269028	ANK: 3
L7RCJ1	1269028	ANK: 3
L7RB22	1269028	WD40: 4
L7RFL8	1269028	ANK: 9
L7RD36	1269028	ANK: 10
L7RCK9	1269028	LRR: 6
L7RDR3	1269028	ANK: 4
L7RBS7	1269028	ANK: 6
L7RDR0	1269028	ANK: 4
L7RBT1	1269028	ANK: 10
L7RCC4	1269028	ANK: 4
L7RBV7	1269028	ANK: 7
L7RGT1	1269028	ANK: 5
L7RGU6	1269028	WD40: 6
L7RD10	1269028	ANK: 3
L7RCI8	1269028	ANK: 9
L7RFJ1	1269028	ANK: 6
L7RFS4	1269028	ANK: 4
L7RGT3	1269028	ANK: 10
L7RCN8	1269028	ANK: 3
L7RE56	1269028	ANK: 4
L7RDX0	1269028	ANK: 11
L7RB76	1269028	ANK: 6
L7RB37	1269028	ANK: 2
L7RCJ5	1269028	ANK: 9
L7RCB7	1269028	ANK: 4
L7RFM5	1269028	WD40: 6
L7RG03	1269028	ANK: 3
L7RBV6	1269028	ANK: 7
L7RBE0	1269028	ANK: 6
L7RDM9	1269028	ANK: 2
L7RBR1	1269028	ANK: 6
L7RD80	1269028	ANK: 1
L7RB72	1269028	ANK: 6
L7RG35	1269028	ANK: 9
L7RFS1	1269028	ANK: 5
L7RCM9	1269028	ANK: 5
L7RD49	1269028	ANK: 10
L7RB10	1269028	ANK: 2
G5CSL2	1094892	ANK: 7
G5CRJ8	1094892	ANK: 4
G5CSU6	1094892	ANK: 9
G5CSC9	1094892	WD40: 4
G5CSL5	1094892	ANK: 10
G5CQU1	1094892	ANK: 22
G5CQQ8	1094892	ANK: 6
G5CQA2	1094892	ANK: 7
G5CRK4	1094892	ANK: 3
G5CRK0	1094892	ANK: 6
G5CQJ9	1094892	ANK: 5
G5CRP0	1094892	ANK: 4
G5CRM0	1094892	ANK: 1
G5CRN2	1094892	ANK: 9
G5CSU9	1094892	ANK: 6
G5CRE1	1094892	ANK: 9
G5CRY7	1094892	ANK: 12
G5CQF9	1094892	ANK: 4
G5CSH5	1094892	ANK: 8
G5CRL4	1094892	ANK: 4
G5CQQ2	1094892	ANK: 6
G5CSD1	1094892	ANK: 6
G5CQ42	1094892	ANK: 3
G5CRD9	1094892	ANK: 9
G5CRD0	1094892	ANK: 9
G5CSR6	1094892	WD40: 7
G5CSW4	1094892	ANK: 6
G5CQN3	1094892	ANK: 5
G5CQK3	1094892	ANK: 3
G5CQ32	1094892	ANK: 9
G5CQT8	1094892	ANK: 5
G5CRL6	1094892	ANK: 6
G5CR20	1094892	ANK: 2
G5CR43	1094892	ANK: 4
G5CSC0	1094892	ANK: 5
G5CRK7	1094892	ANK: 9
G5CRC0	1094892	ANK: 3
G5CQN4	1094892	ANK: 5
G5CR45	1094892	ANK: 5
G5CRP1	1094892	ANK: 4
G5CRE2	1094892	ANK: 6
G5CQK2	1094892	ANK: 7
G5CR49	1094892	ANK: 10
G5CRY8	1094892	ANK: 4
G5CRX2	1094892	ANK: 5
G5CSW6	1094892	ANK: 6
G5CQZ7	1094892	ANK: 9
G5CQI3	1094892	ANK: 17
G5CSB3	1094892	ANK: 4
G5CSM3	1094892	ANK: 7
G5CSU4	1094892	WD40: 4
G5CR44	1094892	ANK: 6
G5CS36	1094892	ANK: 5
G5CS01	1094892	ANK: 6
G5CQV5	1094892	ANK: 3
G5CR18	1094892	ANK: 6
G5CRS0	1094892	ANK: 10
G5CSC7	1094892	ANK: 7
G5CRI6	1094892	ANK: 11
G5CQG8	1094892	ANK: 4
G5CQT7	1094892	ANK: 5
G5CRU0	1094892	ANK: 3
G5CQJ3	1094892	ANK: 9
G5CRB4	1094892	ANK: 6
G5CRL0	1094892	ANK: 3
G5CR47	1094892	ANK: 5
G5CQ86	1094892	ANK: 5
G5CQS0	1094892	ANK: 12
G5CR75	1094892	ANK: 6
G5CQK7	1094892	ANK: 2
G5CR81	1094892	ANK: 1
G5CQH3	1094892	LRR: 2
G5CQZ6	1094892	ANK: 5
G5CSV2	1094892	WD40: 4
G5CQ96	1094892	ANK: 3
G5CRJ5	1094892	ANK: 3
G5CQI1	1094892	ANK: 8
G5CRY6	1094892	ANK: 10
G5CR23	1094892	ANK: 6
G5CRC1	1094892	ANK: 3
G5CQD5	1094892	ANK: 1
G5CSV9	1094892	ANK: 7
G5CR42	1094892	ANK: 5
G5CSB5	1094892	ANK: 8
G5CQS1	1094892	ANK: 2
G5CSR0	1094892	ANK: 8
G5CS56	1094892	WD40: 4
G5CRY9	1094892	ANK: 9
G5CT52	1094892	ANK: 5
G5CQS8	1094892	ANK: 6
G5CS81	1094892	ANK: 3
G5CT33	1094892	ANK: 3
G5CQ88	1094892	ANK: 5
G5CSM0	1094892	ANK: 14
G5CSU1	1094892	ANK: 12
G5CR10	1094892	ANK: 5
G5CR46	1094892	ANK: 5
G5CQ31	1094892	ANK: 5
G5CQ59	1094892	ANK: 7
G5CSJ4	1094892	ANK: 10
G5CR76	1094892	ANK: 17
G5CSI7	1094892	LRR: 6
G5CQG0	1094892	ANK: 8
G5CQH9	1094892	WD40: 5
G5CSA8	1094892	ANK: 12
G5CQI7	1094892	ANK: 1
G5CS61	1094892	ANK: 3
G5CSY2	1094892	ANK: 3
G5CSJ6	1094892	ANK: 10
G5CRL2	1094892	ANK: 3
G5CQP4	1094892	ANK: 11
G5CST8	1094892	ANK: 5
G5CRT5	1094892	ANK: 4
G5CRL5	1094892	ANK: 4
G5CQG6	1094892	ANK: 4
G5CRN6	1094892	ANK: 6
E3T590	693272	ANK: 2
E3T4D0	693272	TPR: 5
E3T5K0	693272	ANK: 4
E3T5P2	693272	TPR: 4
E3T5L1	693272	ANK: 5
E3T4Z9	693272	ANK: 1
E3T4V8	693272	ANK: 3
A0A2H4UVX4	2024608	LRR: 13
A0A2H4UWI4	2024608	LRR: 16
A0A2H4UUR9	2024608	LRR: 9
A0A2H4UVW0	2024608	LRR: 15
A0A2H4UW17	2024608	LRR: 8
A0A2H4UTS2	2024608	TPR: 3
A0A2H4UUE6	2024608	ANK: 3
A0A2H4UVX0	2024608	LRR: 9
A0A2H4UUS3	2024608	LRR: 10
A0A2H4UUT8	2024608	LRR: 6
A0A2H4UUS5	2024608	LRR: 6
A0A2H4UUY7	2024608	LRR: 14
A0A2H4UVQ4	2024608	LRR: 4
A0A2H4UUT4	2024608	LRR: 6
A0A2H4UV98	2024608	ANK: 3
A0A2H4UW07	2024608	LRR: 12
A0A2H4UV88	2024608	ANK: 4
A0A2H4UVV4	2024608	LRR: 14
A0A2H4UW36	2024608	ANK: 7
A0A2H4UUU5	2024608	ANK: 8
A0A2H4UUY3	2024608	LRR: 11
A0A2P0VN58	2060617	WD40: 4
A0A2P0VP31	2060617	ANK: 6
A0A2P0VP16	2060617	WD40: 7
A0A2P0VMW2	2060617	LRR: 3
A0A2P0VN19	2060617	WD40: 5
A0A076FGQ6	1474867	KELCH: 5
G8DHE2	755273	LRR: 2
G8DHB8	755273	ANK: 6
A7K9H8	322019	ANK: 3
E5ERA2	880160	"KELCH: 15, RCC1: 7"
Q8QNP4	654926	ANK: 5
Q8QNQ1	654926	ANK: 10
Q8QN90	654926	ANK: 9
Q8QNP0	654926	ANK: 9
Q8QNN0	654926	ANK: 6
Q8QNQ8	654926	ANK: 7
Q8QNC5	654926	ANK: 4
Q8QNG5	654926	ANK: 4
B5LWJ8	39420	ANK: 5
Q4A2Y4	654925	ANK: 1
Q4A249	654925	KELCH: 4
A0A0M4JAW6	1678078	ANK: 3
A0A0M4JAS8	1678078	ANK: 2
A0A0M4K4L9	1678078	ANK: 5
A0A0M3SGT9	1678078	ANK: 4
A0A0M4K6P3	1678078	ANK: 3
A0A0M4K4F7	1678078	ANK: 4
A0A0M4JT29	1678078	ANK: 4
A0A0M4JTL1	1678078	WD40: 3
A0A0M5KA99	1678078	ANK: 2
A0A0M5KCD3	1678078	ANK: 4
A0A2U7UG78	2107707	ANK: 2
A0A2U7UFE4	2107707	ANK: 3
A0A2U7UFH6	2107707	ANK: 6
A0A2U7UGN3	2107707	ANK: 6
A0A2U7UGA1	2107707	WD40: 4
A0A2U7UEQ2	2107707	ANK: 4
A0A2U7UES2	2107707	ANK: 11
A0A2U7UFH1	2107707	ANK: 4
A0A2U7UFQ1	2107707	ANK: 11
A0A2U7UFW8	2107707	ANK: 6
A0A2U7UFP1	2107707	ANK: 7
A0A2U7UGE0	2107707	ANK: 3
A0A2U7UEQ9	2107707	ANK: 3
A0A2U7UGJ8	2107707	ANK: 6
A0A2U7UE47	2107707	ANK: 3
A0A2U7UFB4	2107707	ANK: 2
A0A2U7UG84	2107707	ANK: 4
A0A2U7UEC6	2107707	ANK: 2
A0A2U7UGB7	2107707	ANK: 5
A0A2U7UEF6	2107707	LRR: 4
A0A2U7UEE0	2107707	ANK: 3
A0A2U7UFM1	2107707	ANK: 3
A0A2U7UDQ3	2107708	ANK: 6
A0A2U7UCB7	2107708	ANK: 7
A0A2U7UE61	2107708	ANK: 3
A0A2U7UCN7	2107708	ANK: 5
A0A2U7UBQ7	2107708	ANK: 3
A0A2U7UCD1	2107708	ANK: 3
A0A2U7UBJ9	2107708	ANK: 3
A0A2U7UDV6	2107708	ANK: 3
A0A2U7UCB6	2107708	ANK: 6
A0A2U7UDH4	2107708	ANK: 5
A0A2U7UCD8	2107708	ANK: 3
A0A2U7UB90	2107708	ANK: 2
A0A2U7UD65	2107708	ANK: 4
A0A2U7UDR1	2107708	ANK: 5
A0A2U7UD34	2107708	ANK: 7
A0A2U7UCL9	2107708	ANK: 3
A0A2U7UDU0	2107708	ANK: 2
A0A2U7UCC9	2107708	ANK: 6
A0A2U7UCW9	2107708	ANK: 6
A0A2U7UE15	2107708	ANK: 5
A0A2U7UDZ3	2107708	ANK: 6
A0A2U7UCV4	2107708	ANK: 1
A0A2U7UDU5	2107708	ANK: 3
A0A2U7UCU4	2107708	ANK: 8
A0A2U7UDZ4	2107708	ANK: 5
A0A2U7UBP4	2107708	ANK: 4
A0A2U7UCA2	2107708	ANK: 5
A0A2U7UCK8	2107708	ANK: 4
A0A2U7UD22	2107708	WD40: 5
A0A2U7UDW1	2107708	ANK: 6
A0A2U7UDF3	2107708	ANK: 2
A0A2U7UBS4	2107708	ANK: 9
S4W562	1349410	WD40: 4
S4VUX2	1349410	ANK: 2
S4W5U0	1349410	ANK: 4
S4VZG6	1349410	ANK: 3
S4VVL4	1349410	ANK: 4
A0A291ATK2	1349410	ANK: 3
S4VV64	1349410	ANK: 11
S4VVT0	1349410	ANK: 4
S4W027	1349410	ANK: 6
S4VX17	1349410	ANK: 4
S4W4E1	1349410	ANK: 5
S4W2L6	1349410	ANK: 6
S4W254	1349410	WD40: 4
S4VX53	1349410	ANK: 4
A0A291AU02	1349410	ANK: 3
S4VX78	1349410	ANK: 3
S4W3I6	1349410	ANK: 7
S4W1P5	1349410	ANK: 7
S4W2K0	1349410	ANK: 6
S4W049	1349410	ANK: 5
S4VUW6	1349410	ANK: 6
S4VWV3	1349410	ANK: 3
S4W4J2	1349410	ANK: 3
S4W3A5	1349410	ANK: 9
S4VZ60	1349410	ANK: 2
S4W3G8	1349410	ANK: 6
S4VXM0	1349410	ANK: 11
A0A291AU32	1349410	ANK: 3
S4VU12	1349410	ANK: 5
S4W425	1349410	ANK: 6
A0A291ATR9	1349410	ANK: 2
S4VY20	1349410	ANK: 6
A0A291ATX3	1349410	ANK: 5
A0A291ATE7	1349410	ANK: 6
S4VX57	1349410	ANK: 2
S4VVU1	1349410	ANK: 4
S4W2E8	1349410	ANK: 5
S4VV06	1349410	ANK: 6
S4VZL1	1349410	ANK: 6
S4VY93	1349410	ANK: 2
S4W3B1	1349410	ANK: 3
A0A291ATQ3	1349410	ANK: 3
S4VTD5	1349410	ANK: 5
S4VVC3	1349410	ANK: 2
S4VXN3	1349410	ANK: 3
S4VZD7	1349410	LRR: 5
S4W431	1349410	ANK: 6
S4VQA8	1349409	ANK: 11
S4VYJ8	1349409	ANK: 1
S4VUF5	1349409	WD40: 4
S4VP78	1349409	ANK: 2
S4VNX2	1349409	ANK: 3
A0A291AU67	1349409	ANK: 4
S4VRS6	1349409	ANK: 6
S4VYL0	1349409	ANK: 1
S4VT58	1349409	ANK: 7
S4VP70	1349409	ANK: 3
S4VZ56	1349409	ANK: 6
S4VR98	1349409	LRR: 4
S4VP42	1349409	ANK: 3
S4VUE0	1349409	ANK: 6
S4VPQ0	1349409	ANK: 7
S4VQN8	1349409	ANK: 4
S4VYT0	1349409	ANK: 1
A0A291ATZ7	1349409	ANK: 4
S4VQ12	1349409	ANK: 4
A0A291ATZ0	1349409	ANK: 5
S4VY31	1349409	ANK: 1
S4VZN9	1349409	ANK: 5
S4VVW1	1349409	ANK: 4
S4VRC7	1349409	ANK: 6
S4VRH9	1349409	ANK: 5
S4VUY4	1349409	ANK: 3
A0A2U7U868	2107709	ANK: 4
A0A2U7UA84	2107709	ANK: 3
A0A2U7U8B6	2107709	ANK: 8
A0A2U7U7Y1	2107709	ANK: 3
A0A2U7U8K4	2107709	ANK: 9
A0A2U7UB37	2107709	ANK: 6
A0A2U7UA64	2107709	ANK: 6
A0A2U7U7X6	2107709	ANK: 2
A0A2U7UAV7	2107709	ANK: 6
A0A2U7UA58	2107709	ANK: 10
A0A2U7UAB6	2107709	ANK: 7
A0A2U7U9A7	2107709	ANK: 1
A0A2U7U9W5	2107709	ANK: 2
A0A2U7UAX4	2107709	ANK: 3
A0A2U7UA70	2107709	WD40: 4
A0A2U7U8N4	2107709	ANK: 3
A0A2U7U8N2	2107709	ANK: 4
A0A2U7UA66	2107709	ANK: 6
A0A2U7U9V4	2107709	ANK: 4
A0A2U7U7Q9	2107709	LRR: 4
A0A2U7U8M0	2107709	ANK: 7
A0A2U7U8I7	2107709	ANK: 4
A0A2U7UA02	2107709	ANK: 10
A0A2U7U848	2107709	ANK: 5
A0A2U7U9P8	2107709	ANK: 3
A0A2U7UAM9	2107709	ANK: 1
A0A2U7UAZ8	2107709	ANK: 3
A0A0B5IY18	1605721	ANK: 1
A0A0B5J6C6	1605721	ANK: 4
A0A0B5IZZ6	1605721	ANK: 6
A0A0B5J907	1605721	ANK: 7
A0A0B5J392	1605721	ANK: 7
A0A0B5J878	1605721	ANK: 3
A0A0B5JCE9	1605721	ANK: 4
A0A0B5IZT8	1605721	ANK: 4
A0A0B5J8R5	1605721	ANK: 9
A0A0B5JAA2	1605721	ANK: 3
A0A0B5JAG1	1605721	ANK: 7
A0A0B5J6W2	1605721	ANK: 1
A0A0B5J9F5	1605721	ANK: 6
A0A0B5J100	1605721	ANK: 3
A0A0B5JEB8	1605721	ANK: 5
A0A0B5JCG9	1605721	ANK: 9
A0A0B5J560	1605721	ANK: 3
A0A0B5JF04	1605721	ANK: 1
A0A0B5J8T2	1605721	ANK: 3
A0A0B5J6V8	1605721	ANK: 6
A0A0B5IWL7	1605721	ANK: 5
A0A2R8FFW6	2126979	WD40: 3
A0A2R8FFT3	2126979	ANK: 1
A0A2R8FFF4	2126979	ANK: 2
A0A2R8FF34	2126979	ANK: 3
A0A2R8FF23	2126979	ANK: 4
A0A2R8FFJ9	2126979	ANK: 3
A0A2R8FF56	2126979	ANK: 3
A0A285PWX8	2023205	ANK: 2
A0A285Q277	2023205	ANK: 3
A0A285PXQ0	2023205	WD40: 3
A0A285Q293	2023205	ANK: 3
A0A285PWY2	2023205	ANK: 3
A0A2R8FFK9	2126980	ANK: 5
A0A2R8FFB6	2126980	ANK: 3
A0A2R8FFC4	2126980	ANK: 3
A0A2R8FDA2	2126980	WD40: 3
W5S6G4	1450746	ANK: 3
A0A2I2L4V7	2023057	ANK: 2
A0A2I2L4U5	2023057	ANK: 6
A0A2I2L4A3	2023057	ANK: 4
A0A2I2L5Y0	2023057	ANK: 6
A0A2I2L5U0	2023057	ANK: 4
A0A2I2L466	2023057	RCC1: 4
A0A2I2L4V8	2023057	TPR: 4
A0A2I2L3V2	2023057	WD40: 3
A0A2I2L3C6	2023057	RCC1: 3
A0A2I2L4J4	2023057	ANK: 6
A0A2I2L5B6	2023057	RCC1: 4
A0A2I2L4C3	2023057	ANK: 6
A0A2I2L444	2023057	TPR: 3
A0A2I2L5D6	2023057	ANK: 11
A0A2I2L4U2	2023057	ANK: 5
A0A2I2L4A5	2023057	ANK: 7
A0A2I2L4W8	2023057	ANK: 3
A0A2I2L4X6	2023057	ANK: 2
A0A2I2L514	2023057	ANK: 3
A0A2I2L3L1	2023057	ANK: 2
A0A2I2L4U9	2023057	ANK: 7
A0A2I2L3B2	2023057	ANK: 8
A0A2I2L4A4	2023057	ANK: 6
A0A2I2L4C4	2023057	ANK: 7
A0A1D6Y7Z3	1720526	ANK: 5
A0A1D6Y835	1720526	WD40: 3
A0A1D6Y7I9	1720526	ANK: 6
A0A142CKD6	1813599	ANK: 1
A0A142CKC4	1813599	ANK: 2
A0A142CJH9	1813599	ANK: 4
A0A142CJC9	1813599	WD40: 3
F2WKU9	999883	WD40: 4
F2WLR1	999883	ANK: 2
A0A0N9PVY9	1733873	WD40: 4
A0A0N9Q154	1733873	ANK: 2
V9SGE2	1421067	ANK: 2
V9SEH1	1421067	WD40: 3
V9SEL4	1421067	ANK: 2
V9SDI1	1421067	ANK: 2
A0A146JIM0	1826170	ANK: 2
A0A146JIS8	1826170	ANK: 2
A0A146JDN6	1826170	ANK: 3
D2XAX1	694581	ANK: 2
D2XB80	694581	ANK: 5
D2XB61	694581	WD40: 3
A0A097I232	1560514	ANK: 2
A0A097I2C5	1560514	WD40: 3
A0A097I2D9	1560514	ANK: 5
T2AWJ5	1394979	ANK: 2
T2AWU7	1394979	WD40: 3
T2AWW2	1394979	ANK: 5
A0A1S5XYM8	1958810	WD40: 4
A0A1S5XYY1	1958810	ANK: 4
A0A1S5XYC7	1958810	ANK: 2
A0A140G0T4	180170	ANK: 6
A0A140G0Q3	180170	ANK: 4
A0A1X6WFW9	1932881	LRR: 9
A0A1X6WFT2	1932881	LRR: 6
A0A0A1E0L2	10497	ANK: 5
A0A0A1E2Z4	10497	ANK: 3
A0A1V0CP14	1859492	ANK: 2
P28854	28321	LRR: 4
Q9EMR5	28321	LRR: 5
R4ZFS2	1293572	LRR: 7
R4ZFQ1	1293572	LRR: 8
R4ZFD1	1293572	LRR: 8
R4ZEH2	1293572	LRR: 11
R4ZEG5	1293572	LRR: 3
R4ZEH1	1293572	LRR: 12
R4ZEH0	1293572	LRR: 10
W6JIJ4	62099	LRR: 7
W6JLN8	62099	LRR: 4
W6JPL3	62099	LRR: 4
Q9YVI5	83191	LRR: 14
Q9YW85	83191	LRR: 9
Q9YVK3	83191	LRR: 7
Q9YW63	83191	LRR: 2
Q9YW78	83191	LRR: 3
Q9YVK1	83191	LRR: 7
Q9YVI1	83191	LRR: 12
Q9YW81	83191	LRR: 10
Q9YW77	83191	LRR: 7
Q9YW76	83191	LRR: 7
Q9YW75	83191	LRR: 4
Q9YVQ6	83191	LRR: 3
Q9YVI8	83191	LRR: 6
Q9YVI7	83191	LRR: 8
Q9YW82	83191	LRR: 11
Q6VZX0	44088	ANK: 11
Q6VZY7	44088	ANK: 3
Q6VZU7	44088	ANK: 4
Q6VZC4	44088	ANK: 17
Q6VZK4	44088	ANK: 13
Q6VZ56	44088	ANK: 11
Q6VZX1	44088	ANK: 3
Q6VZZ0	44088	ANK: 8
Q6VZB0	44088	ANK: 6
Q6VZ44	44088	ANK: 8
Q6VZB4	44088	ANK: 7
Q6VZ39	44088	ANK: 6
Q6VZ54	44088	ANK: 2
Q6VZB3	44088	ANK: 7
Q6VZX7	44088	ANK: 10
Q6VZG2	44088	ANK: 3
Q6VZW9	44088	ANK: 6
Q6VZ47	44088	ANK: 6
Q6VZY6	44088	ANK: 9
Q6VZ37	44088	ANK: 7
Q6VZ49	44088	ANK: 10
Q6VZV5	44088	ANK: 12
Q6VZV7	44088	ANK: 12
Q6VZY0	44088	ANK: 9
Q6VZ52	44088	ANK: 8
Q6VZJ7	44088	ANK: 5
Q6VZV6	44088	ANK: 9
Q6VZ33	44088	ANK: 11
Q6VZ29	44088	ANK: 8
Q6VZ51	44088	ANK: 7
Q6VZB8	44088	ANK: 8
Q6VZ38	44088	ANK: 4
Q6VZ28	44088	ANK: 12
Q6VZ46	44088	ANK: 10
Q6VZW3	44088	ANK: 12
Q6VZV1	44088	ANK: 8
Q6VZ22	44088	ANK: 6
Q6VZV3	44088	ANK: 9
Q6VZX6	44088	ANK: 8
Q6VZK3	44088	ANK: 7
Q6VZ31	44088	ANK: 8
Q6VZ43	44088	ANK: 8
Q6VZW7	44088	ANK: 4
Q6VZY8	44088	ANK: 12
Q6VZ53	44088	ANK: 7
Q6VZJ6	44088	ANK: 7
Q6VZ50	44088	ANK: 12
Q6VZY2	44088	ANK: 9
Q6VZX8	44088	ANK: 7
P22611	31530	KELCH: 5
P08073	31530	KELCH: 5
Q83730	31530	ANK: 6
Q9PX36	31530	KELCH: 5
Q9Q8F5	31530	ANK: 8
Q9Q8G2	31530	KELCH: 6
Q9Q8F4	31530	ANK: 6
Q9Q8S7	31530	KELCH: 5
Q9Q8F6	31530	ANK: 11
Q01223	10254	ANK: 5
P17369	10254	ANK: 2
Q01222	10254	ANK: 6
P24769	10254	ANK: 7
P17372	10254	ANK: 6
P24357	10254	KELCH: 5
P04297	10254	ANK: 6
P24768	10254	KELCH: 6
P14356	10254	ANK: 6
P17371	10254	KELCH: 6
F1AXH2	10258	ANK: 6
F1AXI0	10258	ANK: 9
F1AXI8	10258	ANK: 6
F1AWU5	10258	ANK: 7
F1AXI4	10258	ANK: 9
A0A1V0S8B8	1974596	ANK: 5
A0A1V0S7Q0	1974596	ANK: 9
A0A1V0S7N3	1974596	ANK: 10
A0A1V0S7V4	1974596	ANK: 14
A0A1V0S8E7	1974596	ANK: 7
A0A1V0S7M8	1974596	ANK: 12
A0A1V0QGT0	1974596	ANK: 3
A0A1V0S7N5	1974596	ANK: 6
A0A1V0S884	1974596	ANK: 9
A0A1V0S877	1974596	ANK: 11
A0A1V0S7Q4	1974596	ANK: 4
A0A1V0S7M9	1974596	ANK: 7
A0A1V0S7M1	1974596	ANK: 8
A0A1V0S889	1974596	ANK: 6
A0A1V0S882	1974596	ANK: 11
A0A1V0S8A9	1974596	ANK: 1
A0A1V0S888	1974596	ANK: 5
A0A1V0S871	1974596	ANK: 5
A0A1V0S891	1974596	ANK: 6
A0A1V0QGW3	1974596	ANK: 6
A0A1V0S8A3	1974596	ANK: 8
A0A1V0S7T3	1974596	ANK: 8
A0A1V0S8A1	1974596	ANK: 6
A0A1V0S886	1974596	ANK: 9
A0A1V0S822	1974596	ANK: 7
A0A1V0S834	1974596	ANK: 7
A0A1V0S881	1974596	ANK: 3
A0A1V0S820	1974596	ANK: 11
A0A1V0QGS2	1974596	ANK: 8
A0A1V0S896	1974596	ANK: 11
A0A1V0S7N4	1974596	ANK: 2
A0A1V0S828	1974596	ANK: 7
A0A1V0S7M5	1974596	ANK: 7
A0A1V0S7Q3	1974596	ANK: 10
A0A1V0S885	1974596	ANK: 7
A0A1V0S872	1974596	ANK: 10
A0A1V0S875	1974596	ANK: 2
A0A1V0S8A2	1974596	ANK: 7
A0A1V0S8A7	1974596	ANK: 10
A0A1V0S7X2	1974596	ANK: 8
A0A1V0S7W9	1974596	ANK: 13
A0A1V0S7P7	1974596	ANK: 7
A0A1V0S8A8	1974596	ANK: 4
A0A1V0S8B9	1974596	ANK: 1
A0A1V0S7Q6	1974596	ANK: 9
A0A1V0S7N0	1974596	ANK: 4
A0A1V0S878	1974596	ANK: 7
A0A1V0S7P2	1974596	ANK: 4
A0A1V0S841	1974596	ANK: 2
A0A223FN27	2025359	KELCH: 5
A0A223FMM7	2025359	KELCH: 5
A0A223FN18	2025359	ANK: 2
A0A223FN08	2025359	KELCH: 6
A0A223FMD6	2025359	ANK: 6
A0A223FN32	2025359	ANK: 3
A0A223FN34	2025359	ANK: 7
A0A223FN44	2025359	ANK: 9
A0A223FN15	2025359	KELCH: 3
A0A223FMK1	2025359	ANK: 8
A0A223FML0	2025359	ANK: 7
A0A223FML2	2025359	ANK: 6
A0A223FMK6	2025359	KELCH: 6
A0A223FMD7	2025359	ANK: 7
